stm32f4xx_hal_msp.c:67:6:HAL_MspInit	16	static
stm32f4xx_hal_msp.c:91:6:HAL_ADC_MspInit	48	static
stm32f4xx_hal_msp.c:146:6:HAL_ADC_MspDeInit	16	static
stm32f4xx_hal_msp.c:179:6:HAL_SPI_MspInit	48	static
stm32f4xx_hal_msp.c:216:6:HAL_SPI_MspDeInit	16	static
stm32f4xx_hal_msp.c:246:6:HAL_TIM_PWM_MspInit	24	static
stm32f4xx_hal_msp.c:268:6:HAL_TIM_Base_MspInit	24	static
stm32f4xx_hal_msp.c:284:6:HAL_TIM_MspPostInit	48	static
stm32f4xx_hal_msp.c:336:6:HAL_TIM_PWM_MspDeInit	16	static
stm32f4xx_hal_msp.c:358:6:HAL_TIM_Base_MspDeInit	16	static
